{
  "annotations": {
    "list": [
      {
        "builtIn": 1,
        "datasource": {
          "type": "grafana",
          "uid": "-- Grafana --"
        },
        "enable": true,
        "hide": true,
        "iconColor": "rgba(0, 211, 255, 1)",
        "name": "Annotations & Alerts",
        "type": "dashboard"
      }
    ]
  },
  "editable": true,
  "fiscalYearStartMonth": 0,
  "graphTooltip": 0,
  "id": 4,
  "links": [],
  "panels": [
    {
      "datasource": {
        "type": "hamedkarbasi93-nodegraphapi-datasource",
        "uid": "P14FF7364DE3A9B42"
      },
      "fieldConfig": {
        "defaults": {},
        "overrides": []
      },
      "gridPos": {
        "h": 23,
        "w": 23,
        "x": 0,
        "y": 0
      },
      "id": 1,
      "options": {
        "edges": {},
        "nodes": {}
      },
      "pluginVersion": "11.3.1",
      "targets": [
        {
          "datasource": {
            "type": "hamedkarbasi93-nodegraphapi-datasource",
            "uid": "P14FF7364DE3A9B42"
          },
          "refId": "A"
        }
      ],
      "title": "TANGO Graph",
      "type": "nodeGraph"
    }
  ],
  "preload": false,
  "refresh": "",
  "schemaVersion": 40,
  "tags": [],
  "templating": {
    "list": []
  },
  "time": {
    "from": "now-6h",
    "to": "now"
  },
  "timepicker": {},
  "timezone": "",
  "title": "TANGO Node Graph",
  "uid": "b9ee60cc-facd-4ad4-91f4-21fc55bd0338",
  "version": 1,
  "weekStart": ""
}